stm32f4xx_hal_msp.c:65:6:HAL_MspInit	16	static
stm32f4xx_hal_msp.c:89:6:HAL_DAC_MspInit	48	static
stm32f4xx_hal_msp.c:141:6:HAL_DAC_MspDeInit	16	static
stm32f4xx_hal_msp.c:171:6:HAL_TIM_Base_MspInit	24	static
stm32f4xx_hal_msp.c:196:6:HAL_TIM_Base_MspDeInit	16	static
stm32f4xx_hal_msp.c:221:6:HAL_UART_MspInit	48	static
stm32f4xx_hal_msp.c:257:6:HAL_UART_MspDeInit	16	static
